{
    "id": 897068,
    "status": "success",
    "stage": "build",
    "name": "build x86_64",
    "ref": "rhel8",
    "tag": false,
    "coverage": null,
    "allow_failure": false,
    "created_at": "2020-06-09T08:30:06.896Z",
    "started_at": "2020-06-09T08:37:08.402Z",
    "finished_at": "2020-06-09T09:00:45.370Z",
    "duration": 1416.968166,
    "user": {
        "id": 34,
        "name": "CKI Bot",
        "username": "cki-bot",
        "state": "active",
        "avatar_url": "https://secure.gravatar.com/avatar/1d5811382e7ef0cd8f30ebbe1c252eba?s=80&d=identicon",
        "web_url": "https://gitlab/cki-bot",
        "created_at": "2018-11-29T14:12:44.544Z",
        "bio": "",
        "location": "",
        "public_email": "",
        "skype": "",
        "linkedin": "",
        "twitter": "",
        "website_url": "",
        "organization": "",
        "job_title": ""
    },
    "commit": {
        "id": "8b79b8944c35ff56601071dfae29e9628f8b5dbf",
        "short_id": "8b79b894",
        "created_at": "2020-06-09T08:30:03.000+00:00",
        "parent_ids": [
            "15a35ca985d8941da5a6a2109d9bb6bc792bed01"
        ],
        "author_name": "CKI Bot",
        "author_email": "34-cki-bot@users.noreply.gitlab",
        "authored_date": "2020-06-09T08:30:03.000+00:00",
        "committer_name": "CKI Bot",
        "committer_email": "34-cki-bot@users.noreply.gitlab",
        "committed_date": "2020-06-09T08:30:03.000+00:00",
        "web_url": "https://gitlab/cki-project/cki-pipeline/-/commit/8b79b8944c35ff56601071dfae29e9628f8b5dbf"
    },
    "pipeline": {
        "id": 597007,
        "sha": "8b79b8944c35ff56601071dfae29e9628f8b5dbf",
        "ref": "rhel8",
        "status": "running",
        "created_at": "2020-06-09T08:30:06.643Z",
        "updated_at": "2020-06-09T08:30:09.455Z",
        "web_url": "https://gitlab/cki-project/cki-pipeline/pipelines/597007"
    },
    "web_url": "https://gitlab/cki-project/cki-pipeline/-/jobs/897068",
    "artifacts_file": {
        "filename": "artifacts.zip",
        "size": 802164929
    },
    "artifacts": [
        {
            "file_type": "archive",
            "size": 802164929,
            "filename": "artifacts.zip",
            "file_format": "zip"
        },
        {
            "file_type": "metadata",
            "size": 1221,
            "filename": "metadata.gz",
            "file_format": "gzip"
        },
        {
            "file_type": "trace",
            "size": 12098,
            "filename": "job.log",
            "file_format": null
        }
    ],
    "runner": {
        "id": 37,
        "description": "cki-high-ocp4-high-kubernetes-high",
        "ip_address": "1.2.3.4",
        "active": true,
        "is_shared": false,
        "name": null,
        "online": true,
        "status": "online"
    },
    "artifacts_expire_at": "2020-07-21T09:00:45.221Z"
}
